%YAML 1.1
%TAG !u! tag:unity3d.com,2011:
--- !u!114 &11400000
MonoBehaviour:
  m_ObjectHideFlags: 0
  m_CorrespondingSourceObject: {fileID: 0}
  m_PrefabInstance: {fileID: 0}
  m_PrefabAsset: {fileID: 0}
  m_GameObject: {fileID: 0}
  m_Enabled: 1
  m_EditorHideFlags: 0
  m_Script: {fileID: 11500000, guid: e688337855c139f4dbbab406d4aef6b1, type: 3}
  m_Name: Terra_Shape
  m_EditorClassIdentifier: 
  planetRadius: 1800
  noiseLayers:
  - enabled: 1
    useFirstLayerAsMask: 0
    noiseSettings:
      filterType: 0
      simpleNoiseSettings:
        strength: 0.12
        numLayers: 6
        baseRoughness: 1.59
        roughness: 1.93
        persistence: 0.5
        center: {x: 0, y: 0, z: 0}
        minValue: 1
      rigidNoiseSettings:
        strength: 1
        numLayers: 1
        baseRoughness: 1
        roughness: 2
        persistence: 0.5
        center: {x: 0, y: 0, z: 0}
        minValue: 0
        weightMultiplier: 0.8
  - enabled: 1
    useFirstLayerAsMask: 1
    noiseSettings:
      filterType: 0
      simpleNoiseSettings:
        strength: -1.61
        numLayers: 3
        baseRoughness: 1.79
        roughness: 1.16
        persistence: 0.15
        center: {x: 0, y: 0, z: 0}
        minValue: 0.63
      rigidNoiseSettings:
        strength: 1
        numLayers: 1
        baseRoughness: 1
        roughness: 2
        persistence: 0.5
        center: {x: 0, y: 0, z: 0}
        minValue: 0
        weightMultiplier: 0.8
  - enabled: 1
    useFirstLayerAsMask: 1
    noiseSettings:
      filterType: 1
      simpleNoiseSettings:
        strength: 1
        numLayers: 1
        baseRoughness: 1
        roughness: 2
        persistence: 0.5
        center: {x: 0, y: 0, z: 0}
        minValue: 0
      rigidNoiseSettings:
        strength: 1.44
        numLayers: 1
        baseRoughness: 2.3
        roughness: 3.21
        persistence: 0.48
        center: {x: 0, y: 0, z: 0}
        minValue: 0
        weightMultiplier: 0.99
