%YAML 1.1
%TAG !u! tag:unity3d.com,2011:
--- !u!114 &11400000
MonoBehaviour:
  m_ObjectHideFlags: 0
  m_CorrespondingSourceObject: {fileID: 0}
  m_PrefabInstance: {fileID: 0}
  m_PrefabAsset: {fileID: 0}
  m_GameObject: {fileID: 0}
  m_Enabled: 1
  m_EditorHideFlags: 0
  m_Script: {fileID: 11500000, guid: e688337855c139f4dbbab406d4aef6b1, type: 3}
  m_Name: Epsilon_Shape
  m_EditorClassIdentifier: 
  planetRadius: 1600
  noiseLayers:
  - enabled: 1
    useFirstLayerAsMask: 0
    noiseSettings:
      filterType: 0
      simpleNoiseSettings:
        strength: 1.08
        numLayers: 3
        baseRoughness: 1.27
        roughness: 2.28
        persistence: 0.42
        center: {x: 0, y: 0, z: 0}
        minValue: 0.91
      rigidNoiseSettings:
        strength: 6.21
        numLayers: 3
        baseRoughness: 0.32
        roughness: 0.69
        persistence: 0.33
        center: {x: 0, y: 0, z: 0}
        minValue: 0.82
        weightMultiplier: 1.09
  - enabled: 1
    useFirstLayerAsMask: 1
    noiseSettings:
      filterType: 1
      simpleNoiseSettings:
        strength: 1.02
        numLayers: 3
        baseRoughness: 1.27
        roughness: 2.28
        persistence: 0.42
        center: {x: 0, y: 0, z: 0}
        minValue: 0.91
      rigidNoiseSettings:
        strength: 2.93
        numLayers: 3
        baseRoughness: 0.32
        roughness: 0.78
        persistence: 0.17
        center: {x: 0.45, y: 0, z: 0}
        minValue: 0.82
        weightMultiplier: 2.08
