%YAML 1.1
%TAG !u! tag:unity3d.com,2011:
--- !u!114 &11400000
MonoBehaviour:
  m_ObjectHideFlags: 0
  m_CorrespondingSourceObject: {fileID: 0}
  m_PrefabInstance: {fileID: 0}
  m_PrefabAsset: {fileID: 0}
  m_GameObject: {fileID: 0}
  m_Enabled: 1
  m_EditorHideFlags: 0
  m_Script: {fileID: 11500000, guid: e688337855c139f4dbbab406d4aef6b1, type: 3}
  m_Name: Jup_Shape
  m_EditorClassIdentifier: 
  planetRadius: 1500
  noiseLayers:
  - enabled: 1
    useFirstLayerAsMask: 0
    noiseSettings:
      filterType: 1
      simpleNoiseSettings:
        strength: 0.88
        numLayers: 4
        baseRoughness: 1.2
        roughness: 2.23
        persistence: 0.72
        center: {x: 0, y: 1.5833325, z: 0}
        minValue: 0
      rigidNoiseSettings:
        strength: 0.65
        numLayers: 3
        baseRoughness: 0.5
        roughness: 3.06
        persistence: 0.7
        center: {x: 0, y: 14.749947, z: 0}
        minValue: 1.25
        weightMultiplier: 0.43
  - enabled: 1
    useFirstLayerAsMask: 0
    noiseSettings:
      filterType: 0
      simpleNoiseSettings:
        strength: 0.35
        numLayers: 4
        baseRoughness: 1.18
        roughness: 2.23
        persistence: 0.76
        center: {x: 0, y: 9.616692, z: 0}
        minValue: 1.17
      rigidNoiseSettings:
        strength: 2.84
        numLayers: 3
        baseRoughness: 0.5
        roughness: 3.06
        persistence: 0.7
        center: {x: 0, y: 6.7166996, z: 0}
        minValue: 0.5
        weightMultiplier: 0.04
