%YAML 1.1
%TAG !u! tag:unity3d.com,2011:
--- !u!114 &11400000
MonoBehaviour:
  m_ObjectHideFlags: 0
  m_CorrespondingSourceObject: {fileID: 0}
  m_PrefabInstance: {fileID: 0}
  m_PrefabAsset: {fileID: 0}
  m_GameObject: {fileID: 0}
  m_Enabled: 1
  m_EditorHideFlags: 0
  m_Script: {fileID: 11500000, guid: e3c2f4293b46b92479e66b9dc656dd7a, type: 3}
  m_Name: Jup_Color
  m_EditorClassIdentifier: 
  planetMaterial: {fileID: 2100000, guid: be67b91ad771d57489c71f282df22f2d, type: 2}
  biomeColorSettings:
    biomes:
    - gradient:
        serializedVersion: 2
        key0: {r: 0.10791205, g: 0.20661862, b: 0.9150943, a: 1}
        key1: {r: 1, g: 0.22008038, b: 0, a: 1}
        key2: {r: 0, g: 0, b: 0, a: 0}
        key3: {r: 0, g: 0, b: 0, a: 0}
        key4: {r: 0, g: 0, b: 0, a: 0}
        key5: {r: 0, g: 0, b: 0, a: 0}
        key6: {r: 0, g: 0, b: 0, a: 0}
        key7: {r: 0, g: 0, b: 0, a: 0}
        ctime0: 0
        ctime1: 65535
        ctime2: 0
        ctime3: 0
        ctime4: 0
        ctime5: 0
        ctime6: 0
        ctime7: 0
        atime0: 0
        atime1: 65535
        atime2: 0
        atime3: 0
        atime4: 0
        atime5: 0
        atime6: 0
        atime7: 0
        m_Mode: 0
        m_NumColorKeys: 2
        m_NumAlphaKeys: 2
      tint: {r: 1, g: 1, b: 1, a: 1}
      startHeight: 0
      tintPercent: 0
    - gradient:
        serializedVersion: 2
        key0: {r: 1, g: 0.13658537, b: 0, a: 1}
        key1: {r: 0.2950713, g: 0.8490566, b: 0.21226415, a: 1}
        key2: {r: 0, g: 0, b: 0, a: 0}
        key3: {r: 0, g: 0, b: 0, a: 0}
        key4: {r: 0, g: 0, b: 0, a: 0}
        key5: {r: 0, g: 0, b: 0, a: 0}
        key6: {r: 0, g: 0, b: 0, a: 0}
        key7: {r: 0, g: 0, b: 0, a: 0}
        ctime0: 0
        ctime1: 65535
        ctime2: 0
        ctime3: 0
        ctime4: 0
        ctime5: 0
        ctime6: 0
        ctime7: 0
        atime0: 0
        atime1: 65535
        atime2: 65535
        atime3: 0
        atime4: 0
        atime5: 0
        atime6: 0
        atime7: 0
        m_Mode: 0
        m_NumColorKeys: 2
        m_NumAlphaKeys: 2
      tint: {r: 1, g: 1, b: 1, a: 0}
      startHeight: 0.341
      tintPercent: 0
    - gradient:
        serializedVersion: 2
        key0: {r: 0.47545984, g: 0.9716981, b: 0.42626378, a: 1}
        key1: {r: 0.12156862, g: 0.83137256, b: 0.58466285, a: 1}
        key2: {r: 0, g: 0, b: 0, a: 0}
        key3: {r: 0, g: 0, b: 0, a: 0}
        key4: {r: 0, g: 0, b: 0, a: 0}
        key5: {r: 0, g: 0, b: 0, a: 0}
        key6: {r: 0, g: 0, b: 0, a: 0}
        key7: {r: 0, g: 0, b: 0, a: 0}
        ctime0: 0
        ctime1: 65535
        ctime2: 0
        ctime3: 0
        ctime4: 0
        ctime5: 0
        ctime6: 0
        ctime7: 0
        atime0: 0
        atime1: 65535
        atime2: 0
        atime3: 0
        atime4: 0
        atime5: 0
        atime6: 0
        atime7: 0
        m_Mode: 0
        m_NumColorKeys: 2
        m_NumAlphaKeys: 2
      tint: {r: 1, g: 1, b: 1, a: 0}
      startHeight: 0.821
      tintPercent: 0
    noise:
      filterType: 0
      simpleNoiseSettings:
        strength: 2.5
        numLayers: 4
        baseRoughness: 0.91
        roughness: 2
        persistence: 0.5
        center: {x: 0, y: 0, z: 0}
        minValue: 0.43
      rigidNoiseSettings:
        strength: 1
        numLayers: 1
        baseRoughness: 1
        roughness: 2
        persistence: 0.5
        center: {x: 0, y: 0, z: 0}
        minValue: 0.5
        weightMultiplier: 0.8
    noiseOffset: 1.01
    noiseStrength: 0.51
    blendAmount: 0.142
  oceanColor:
    serializedVersion: 2
    key0: {r: 0, g: 0.31926775, b: 1, a: 1}
    key1: {r: 0, g: 0.64903307, b: 1, a: 1}
    key2: {r: 0, g: 0, b: 0, a: 0}
    key3: {r: 0, g: 0, b: 0, a: 0}
    key4: {r: 0, g: 0, b: 0, a: 0}
    key5: {r: 0, g: 0, b: 0, a: 0}
    key6: {r: 0, g: 0, b: 0, a: 0}
    key7: {r: 0, g: 0, b: 0, a: 0}
    ctime0: 0
    ctime1: 65273
    ctime2: 0
    ctime3: 0
    ctime4: 0
    ctime5: 0
    ctime6: 0
    ctime7: 0
    atime0: 785
    atime1: 65535
    atime2: 0
    atime3: 0
    atime4: 0
    atime5: 0
    atime6: 0
    atime7: 0
    m_Mode: 0
    m_NumColorKeys: 2
    m_NumAlphaKeys: 2
