%YAML 1.1
%TAG !u! tag:unity3d.com,2011:
--- !u!21 &2100000
Material:
  serializedVersion: 6
  m_ObjectHideFlags: 0
  m_CorrespondingSourceObject: {fileID: 0}
  m_PrefabInstance: {fileID: 0}
  m_PrefabAsset: {fileID: 0}
  m_Name: Sun_Mat
  m_Shader: {fileID: 4800000, guid: ded62aaf3f7dbf6498a9fdb0b5e2eafe, type: 3}
  m_ShaderKeywords: 
  m_LightmapFlags: 4
  m_EnableInstancingVariants: 0
  m_DoubleSidedGI: 0
  m_CustomRenderQueue: -1
  stringTagMap: {}
  disabledShaderPasses: []
  m_SavedProperties:
    serializedVersion: 3
    m_TexEnvs:
    - _MainTex:
        m_Texture: {fileID: 0}
        m_Scale: {x: 2.29, y: 1}
        m_Offset: {x: 0, y: 0}
    - _planetTexture:
        m_Texture: {fileID: 0}
        m_Scale: {x: 4.8, y: 918.22}
        m_Offset: {x: 3.07, y: 0}
    m_Ints: []
    m_Floats:
    - _Glossiness: 0.256
    - _Metallic: 0.073
    - _NoiseScale: 1033.33
    - _NoiseSpeed: 0.2
    m_Colors:
    - _Color: {r: 16.992136, g: 7.4865713, b: 0, a: 0}
    - _elevationMinMax: {r: 0.04141508, g: 0.25154406, b: 0, a: 0}
  m_BuildTextureStacks: []
